…
# ggeffects

Version: 0.3.3

## Newly broken

*   checking examples ... ERROR
    ```
    ...
    > ggeffect(fit, terms = "c12hour")
    # A tibble: 62 x 5
           x predicted conf.low conf.high group
     * <dbl>     <dbl>    <dbl>     <dbl> <fct>
     1     4      74.4     72.3      76.5 1    
     2     5      74.2     72.1      76.3 1    
     3     6      73.9     71.9      76.0 1    
     4     7      73.7     71.6      75.7 1    
     5     8      73.4     71.4      75.4 1    
     6     9      73.2     71.2      75.2 1    
     7    10      72.9     70.9      74.9 1    
     8    11      72.7     70.7      74.6 1    
     9    12      72.4     70.5      74.3 1    
    10    14      71.9     70.0      73.8 1    
    # ... with 52 more rows
…
